001057787_hw_2 (1)/trace/pd_stdCh.vcd
$date
	Thu Oct 17 23:42:52 2019
$end
$version
	UCI SpecC VCD Writer v0.001
$end
$timescale
	1ps
$end

$var real 0 ! anonymous $end
$var event 1 " Main.DH.c.ack $end
$var event 1 # Main.DH.c.req $end
$var real 1 $ Main.DH.c $end
$var real 1 % Main.DH.r $end
$var real 1 & Main.DH.s $end
$var event 1 ' Main.Q.c.r $end
$var event 1 ( Main.Q.c.s $end
$var real 1 ) Main.Q.c $end
$var real 1 * Main.Q.r $end
$var real 1 + Main.Q.s $end
$var real 1 , Main.DH $end
$var real 1 - Main.Q $end
$var real 1 . Main $end
$var real 1 / _gl_string0 $end
$var real 1 0 _gl_string1 $end
$var real 1 1 _gl_string2 $end
$var real 1 2 _gl_string3 $end
$var real 1 3 _gl_string4 $end
$enddefinitions $end

#0
$dumpvars
0"
0#
0'
0(
$end
srunning .
srunning -
sparent -
sparent -
srunning *
swaiting *
srunning +
swaiting +
#0
0'
srunning *
swaiting *
#0
0(
srunning +
swaiting +
#0
0'
srunning *
swaiting *
#0
0(
srunning +
sinactive +
#0
0'
srunning *
sinactive *
srunning -
sinactive -
srunning ,
sparent ,
sparent ,
srunning %
swaiting %
srunning &
swaiting &
#0
0#
srunning %
swaiting %
#0
0"
srunning &
srunning %
swaiting &
swaiting %
#0
0"
srunning &
srunning %
swaiting &
swaiting %
#0
0"
srunning &
srunning %
swaiting &
swaiting %
#0
0"
srunning &
srunning %
swaiting &
swaiting %
#0
0"
srunning &
srunning %
swaiting &
swaiting %
#0
0"
srunning &
srunning %
swaiting &
swaiting %
#0
0"
srunning &
srunning %
swaiting &
swaiting %
#0
0"
srunning &
srunning %
swaiting &
swaiting %
#0
0"
srunning &
srunning %
swaiting &
swaiting %
#0
0"
srunning &
srunning %
swaiting &
swaiting %
#0
0"
srunning &
srunning %
swaiting &
swaiting %
#0
0"
srunning &
srunning %
sinactive &
sinactive %
srunning ,
sinactive ,
sinactive .
#1
$comment
	Finished dumping at Thu Oct 17 23:42:52 2019
$end